<?xml version="1.0" encoding="utf-8"?>
<!-- Generator: Adobe Illustrator 16.0.4, SVG Export Plug-In . SVG Version: 6.00 Build 0)  -->
<!DOCTYPE svg PUBLIC "-//W3C//DTD SVG 1.1//EN" "http://www.w3.org/Graphics/SVG/1.1/DTD/svg11.dtd">
<svg version="1.1" id="Layer_1" xmlns="http://www.w3.org/2000/svg" xmlns:xlink="http://www.w3.org/1999/xlink" x="0px" y="0px"
	 width="512px" height="629px" viewBox="0 0 512 629" enable-background="new 0 0 512 629" xml:space="preserve">
<g>
	<g>
		<g>
			<path fill="#797A7D" d="M107.412,490.878v-20.474h4.385c0.979,0,1.876,0.18,2.69,0.537c0.814,0.355,1.512,0.883,2.092,1.574
				c0.578,0.693,1.027,1.552,1.347,2.572c0.319,1.021,0.478,2.193,0.478,3.514v4.094c0,1.32-0.159,2.494-0.478,3.514
				c-0.319,1.022-0.771,1.879-1.356,2.567c-0.584,0.689-1.29,1.212-2.116,1.567c-0.826,0.354-1.744,0.534-2.759,0.534H107.412z
				 M108.872,471.924v17.466h2.823c0.835,0,1.578-0.146,2.229-0.438c0.653-0.291,1.204-0.72,1.656-1.287
				c0.452-0.566,0.795-1.269,1.027-2.1c0.237-0.838,0.353-1.791,0.353-2.87v-4.134c0-1.099-0.118-2.057-0.359-2.883
				c-0.237-0.825-0.578-1.517-1.02-2.075c-0.445-0.556-0.987-0.977-1.623-1.256c-0.642-0.282-1.361-0.424-2.161-0.424H108.872z"/>
			<path fill="#797A7D" d="M131.071,485.845c0-0.563-0.064-1.062-0.196-1.498c-0.135-0.436-0.357-0.833-0.679-1.188
				c-0.32-0.355-0.746-0.684-1.285-0.984c-0.535-0.301-1.205-0.599-2.004-0.899c-0.786-0.293-1.491-0.605-2.115-0.949
				c-0.627-0.343-1.165-0.74-1.604-1.194c-0.442-0.455-0.783-0.984-1.024-1.591c-0.237-0.605-0.355-1.309-0.355-2.115
				c0-0.785,0.13-1.505,0.388-2.158c0.261-0.65,0.623-1.209,1.086-1.675c0.466-0.464,1.02-0.824,1.661-1.082
				c0.644-0.255,1.354-0.386,2.127-0.386c0.837,0,1.588,0.159,2.252,0.476c0.665,0.322,1.23,0.758,1.699,1.312
				c0.469,0.551,0.826,1.199,1.072,1.945c0.249,0.747,0.374,1.545,0.374,2.396h-1.472c0-0.665-0.088-1.277-0.26-1.841
				c-0.178-0.563-0.431-1.051-0.762-1.463c-0.331-0.411-0.741-0.733-1.226-0.963c-0.488-0.229-1.043-0.343-1.678-0.343
				c-0.629,0-1.181,0.097-1.654,0.293s-0.866,0.469-1.181,0.81c-0.317,0.343-0.554,0.743-0.717,1.192
				c-0.161,0.457-0.242,0.942-0.242,1.458c0,0.487,0.071,0.935,0.211,1.342c0.139,0.409,0.371,0.785,0.695,1.134
				c0.324,0.345,0.748,0.672,1.271,0.977c0.525,0.306,1.167,0.595,1.924,0.866c0.835,0.299,1.574,0.627,2.22,0.992
				c0.644,0.359,1.183,0.778,1.623,1.254c0.438,0.482,0.771,1.034,0.996,1.668c0.225,0.634,0.341,1.36,0.341,2.187
				c0,0.835-0.135,1.581-0.402,2.241c-0.272,0.662-0.644,1.224-1.122,1.68c-0.478,0.459-1.041,0.814-1.699,1.058
				c-0.656,0.244-1.377,0.365-2.158,0.365c-0.703,0-1.398-0.119-2.099-0.354c-0.698-0.233-1.325-0.599-1.879-1.088
				c-0.554-0.492-1.003-1.124-1.356-1.898c-0.35-0.773-0.523-1.703-0.523-2.792h1.456c0,0.864,0.13,1.588,0.393,2.182
				c0.258,0.59,0.599,1.065,1.015,1.432c0.417,0.367,0.888,0.627,1.413,0.788c0.525,0.161,1.048,0.239,1.581,0.239
				c0.596,0,1.133-0.093,1.614-0.274c0.483-0.183,0.89-0.44,1.226-0.774c0.338-0.331,0.597-0.733,0.784-1.201
				C130.981,486.95,131.071,486.427,131.071,485.845z"/>
			<path fill="#797A7D" d="M146.511,471.924h-5.291v18.954h-1.47v-18.954h-5.279v-1.52h12.04V471.924z"/>
			<path fill="#797A7D" d="M150.257,482.582h-5.166v-1.448h5.166V482.582z"/>
			<path fill="#797A7D" d="M165.006,490.878h-1.455l-8.784-17.436v17.436H153.3v-20.474h1.467l8.796,17.466v-17.466h1.443V490.878z"
				/>
			<path fill="#797A7D" d="M175.22,482.356h-4.345v8.521h-1.47v-20.474h5.1c0.824,0,1.569,0.135,2.229,0.393
				c0.661,0.266,1.221,0.651,1.683,1.162c0.459,0.514,0.812,1.144,1.062,1.891c0.246,0.753,0.369,1.614,0.369,2.589
				c0,0.675-0.076,1.307-0.232,1.896c-0.151,0.594-0.369,1.127-0.65,1.604c-0.282,0.48-0.623,0.895-1.018,1.245
				c-0.396,0.353-0.831,0.619-1.309,0.809l3.871,8.701v0.185h-1.557L175.22,482.356z M170.875,480.866h3.886
				c0.596,0,1.122-0.121,1.578-0.364c0.457-0.244,0.833-0.568,1.131-0.978c0.298-0.407,0.523-0.88,0.677-1.413
				c0.154-0.534,0.232-1.091,0.232-1.673c0-0.693-0.085-1.32-0.251-1.879c-0.166-0.556-0.414-1.029-0.741-1.417
				c-0.327-0.391-0.733-0.691-1.214-0.899c-0.483-0.216-1.039-0.319-1.668-0.319h-3.63V480.866z"/>
			<path fill="#797A7D" d="M192.437,481.344h-7.158v9.534h-1.455v-20.474h9.688v1.52h-8.233v7.903h7.158V481.344z"/>
			<path fill="#797A7D" d="M213.694,484.494c-0.137,2.297-0.7,3.982-1.687,5.054c-0.987,1.074-2.357,1.612-4.105,1.612
				c-0.892,0-1.699-0.194-2.418-0.578c-0.722-0.386-1.334-0.937-1.834-1.658c-0.504-0.722-0.892-1.603-1.164-2.637
				c-0.272-1.036-0.41-2.203-0.41-3.509v-4.399c0-1.285,0.137-2.438,0.41-3.459c0.272-1.021,0.665-1.887,1.176-2.594
				c0.511-0.708,1.134-1.252,1.867-1.633c0.731-0.379,1.562-0.568,2.492-0.568c0.842,0,1.6,0.131,2.267,0.393
				c0.669,0.263,1.247,0.665,1.732,1.21c0.488,0.544,0.871,1.237,1.152,2.08c0.282,0.845,0.455,1.848,0.523,3.012h-1.481
				c-0.069-0.937-0.201-1.736-0.397-2.392c-0.197-0.656-0.466-1.19-0.812-1.604c-0.345-0.41-0.764-0.71-1.259-0.899
				c-0.495-0.188-1.07-0.279-1.725-0.279c-0.724,0-1.365,0.149-1.919,0.454c-0.554,0.308-1.018,0.745-1.398,1.315
				c-0.379,0.573-0.665,1.275-0.857,2.108c-0.189,0.836-0.289,1.777-0.289,2.828v4.428c0,1.041,0.092,1.985,0.277,2.832
				c0.182,0.85,0.455,1.574,0.816,2.175c0.364,0.599,0.814,1.065,1.356,1.392s1.174,0.492,1.896,0.492
				c0.684,0,1.28-0.088,1.791-0.258c0.514-0.178,0.944-0.464,1.294-0.866c0.346-0.402,0.62-0.938,0.821-1.598
				s0.336-1.479,0.405-2.453H213.694z"/>
			<path fill="#797A7D" d="M221.593,491.16c-0.764,0-1.469-0.14-2.108-0.415c-0.641-0.276-1.192-0.7-1.656-1.266
				c-0.466-0.567-0.824-1.282-1.082-2.144c-0.253-0.864-0.381-1.884-0.381-3.067v-1.729c0-1.273,0.135-2.364,0.409-3.268
				c0.272-0.904,0.639-1.645,1.091-2.223c0.457-0.577,0.985-0.998,1.588-1.266c0.599-0.268,1.233-0.4,1.896-0.4
				c1.519,0,2.672,0.552,3.458,1.652c0.79,1.103,1.186,2.787,1.186,5.055v1.322h-8.221v0.856c0,0.928,0.094,1.734,0.281,2.419
				c0.187,0.684,0.45,1.252,0.791,1.701s0.752,0.788,1.228,1.006c0.478,0.22,1.008,0.329,1.585,0.329c0.715,0,1.337-0.131,1.865-0.4
				c0.532-0.268,1.01-0.682,1.446-1.244l0.743,1.043c-0.189,0.279-0.407,0.542-0.66,0.786c-0.251,0.243-0.544,0.459-0.883,0.646
				c-0.336,0.188-0.717,0.336-1.143,0.445C222.596,491.105,222.121,491.16,221.593,491.16z M221.349,476.846
				c-0.504,0-0.965,0.095-1.384,0.279c-0.421,0.189-0.791,0.487-1.1,0.895c-0.312,0.409-0.561,0.935-0.748,1.583
				c-0.187,0.646-0.298,1.429-0.333,2.348h6.789v-0.407c-0.019-0.741-0.095-1.403-0.232-1.983c-0.137-0.582-0.333-1.074-0.594-1.477
				c-0.26-0.402-0.589-0.712-0.989-0.92C222.357,476.952,221.889,476.846,221.349,476.846z"/>
			<path fill="#797A7D" d="M230.36,475.665l0.04,2.418c0.41-0.823,0.933-1.481,1.566-1.966c0.634-0.49,1.354-0.734,2.166-0.734
				c0.577,0,1.098,0.104,1.552,0.311c0.457,0.206,0.845,0.532,1.164,0.984c0.319,0.447,0.566,1.029,0.736,1.736
				c0.17,0.708,0.255,1.562,0.255,2.565v9.898h-1.406v-9.912c0-0.779-0.064-1.43-0.187-1.952c-0.123-0.528-0.3-0.947-0.527-1.262
				c-0.234-0.312-0.511-0.539-0.84-0.672c-0.329-0.14-0.696-0.206-1.107-0.206c-0.423,0-0.814,0.097-1.167,0.289
				c-0.355,0.191-0.672,0.447-0.954,0.767c-0.282,0.316-0.523,0.684-0.729,1.096c-0.204,0.411-0.367,0.845-0.497,1.292v10.561h-1.42
				v-15.213H230.36z"/>
			<path fill="#797A7D" d="M243.744,471.786v3.879h2.364v1.405h-2.364v10.109c0,0.525,0.041,0.951,0.121,1.272
				c0.083,0.324,0.191,0.573,0.326,0.753c0.137,0.178,0.293,0.298,0.466,0.357c0.175,0.062,0.362,0.092,0.559,0.092
				c0.185,0,0.369-0.017,0.549-0.047c0.177-0.033,0.338-0.066,0.473-0.093l0.038,1.406c-0.156,0.075-0.357,0.135-0.608,0.175
				c-0.25,0.043-0.513,0.064-0.786,0.064c-0.367,0-0.708-0.069-1.017-0.197c-0.308-0.132-0.58-0.353-0.812-0.662
				c-0.229-0.311-0.409-0.72-0.537-1.23c-0.128-0.509-0.189-1.146-0.189-1.902V477.07h-2.134v-1.405h2.134v-3.879H243.744z"/>
			<path fill="#797A7D" d="M254.625,477.125c-0.147-0.026-0.289-0.05-0.431-0.068c-0.14-0.02-0.296-0.028-0.466-0.028
				c-0.419,0-0.795,0.082-1.131,0.248c-0.338,0.163-0.632,0.393-0.887,0.687c-0.255,0.296-0.478,0.65-0.658,1.062
				c-0.185,0.411-0.327,0.861-0.431,1.349v10.504h-1.417v-15.213h1.391l0.026,2.276c0.317-0.795,0.733-1.42,1.254-1.874
				c0.521-0.457,1.16-0.685,1.917-0.685c0.154,0,0.314,0.02,0.487,0.058c0.168,0.035,0.293,0.078,0.369,0.125L254.625,477.125z"/>
			<path fill="#797A7D" d="M261.435,491.16c-0.767,0-1.469-0.14-2.111-0.415c-0.636-0.276-1.19-0.7-1.654-1.266
				c-0.464-0.567-0.826-1.282-1.079-2.144c-0.256-0.864-0.383-1.884-0.383-3.067v-1.729c0-1.273,0.135-2.364,0.409-3.268
				c0.272-0.904,0.637-1.645,1.091-2.223c0.457-0.577,0.984-0.998,1.588-1.266c0.601-0.268,1.233-0.4,1.898-0.4
				c1.517,0,2.669,0.552,3.455,1.652c0.791,1.103,1.184,2.787,1.184,5.055v1.322h-8.219v0.856c0,0.928,0.095,1.734,0.282,2.419
				c0.187,0.684,0.45,1.252,0.793,1.701c0.34,0.449,0.75,0.788,1.226,1.006c0.476,0.22,1.008,0.329,1.585,0.329
				c0.715,0,1.339-0.131,1.865-0.4c0.53-0.268,1.01-0.682,1.446-1.244l0.743,1.043c-0.189,0.279-0.41,0.542-0.66,0.786
				c-0.251,0.243-0.544,0.459-0.883,0.646c-0.336,0.188-0.719,0.336-1.143,0.445C262.441,491.105,261.963,491.16,261.435,491.16z
				 M261.194,476.846c-0.504,0-0.968,0.095-1.387,0.279c-0.421,0.189-0.791,0.487-1.101,0.895c-0.312,0.409-0.561,0.935-0.748,1.583
				c-0.189,0.646-0.301,1.429-0.333,2.348h6.789v-0.407c-0.019-0.741-0.092-1.403-0.232-1.983c-0.135-0.582-0.332-1.074-0.594-1.477
				c-0.26-0.402-0.587-0.712-0.989-0.92C262.197,476.952,261.729,476.846,261.194,476.846z"/>
			<path fill="#797A7D" d="M274.194,482.496c0-1.152,0.121-2.167,0.367-3.05c0.249-0.883,0.592-1.623,1.039-2.227
				c0.44-0.606,0.97-1.062,1.59-1.37c0.617-0.311,1.301-0.467,2.049-0.467c0.76,0,1.451,0.156,2.071,0.467
				c0.623,0.308,1.157,0.764,1.6,1.37c0.442,0.604,0.786,1.344,1.027,2.227c0.244,0.883,0.367,1.897,0.367,3.05v1.576
				c0,1.152-0.123,2.17-0.367,3.051c-0.241,0.882-0.584,1.62-1.027,2.217c-0.442,0.594-0.975,1.046-1.592,1.354
				c-0.618,0.311-1.302,0.467-2.049,0.467c-0.76,0-1.451-0.156-2.073-0.467c-0.622-0.308-1.155-0.76-1.595-1.354
				c-0.447-0.597-0.791-1.335-1.039-2.217c-0.246-0.881-0.367-1.898-0.367-3.051V482.496z M275.624,484.072
				c0,0.873,0.081,1.656,0.244,2.348c0.161,0.693,0.397,1.285,0.709,1.772c0.31,0.487,0.691,0.861,1.141,1.126
				c0.452,0.261,0.97,0.394,1.55,0.394c0.613,0,1.145-0.133,1.595-0.394c0.452-0.265,0.828-0.639,1.126-1.126
				c0.298-0.487,0.523-1.079,0.669-1.772c0.149-0.691,0.225-1.475,0.225-2.348v-1.576c0-0.852-0.081-1.625-0.242-2.326
				c-0.163-0.697-0.397-1.292-0.712-1.786c-0.31-0.49-0.691-0.871-1.143-1.139c-0.452-0.267-0.965-0.399-1.548-0.399
				c-0.568,0-1.079,0.133-1.526,0.399c-0.447,0.268-0.826,0.648-1.136,1.139c-0.312,0.494-0.549,1.089-0.709,1.786
				c-0.164,0.701-0.244,1.475-0.244,2.326V484.072z"/>
			<path fill="#797A7D" d="M288.508,490.878V477.07h-1.905v-1.405h1.905v-1.869c0-1.558,0.31-2.745,0.933-3.573
				c0.622-0.824,1.481-1.235,2.582-1.235c0.22,0,0.45,0.019,0.682,0.057c0.236,0.038,0.466,0.097,0.686,0.182l-0.102,1.435
				c-0.17-0.045-0.35-0.083-0.537-0.113c-0.189-0.029-0.393-0.041-0.613-0.041c-0.691,0-1.23,0.282-1.619,0.85
				c-0.386,0.568-0.58,1.38-0.58,2.44v1.869h2.708v1.405h-2.708v13.808H288.508z"/>
			<path fill="#797A7D" d="M310.3,481.077h-7.22v8.312h8.308v1.488h-9.768v-20.474h9.702v1.52h-8.242v7.664h7.22V481.077z"/>
			<path fill="#797A7D" d="M318.033,481.811l3.029-6.146h1.675l-3.923,7.466l4.075,7.747h-1.661l-3.181-6.396l-3.197,6.396h-1.661
				l4.065-7.747l-3.914-7.466h1.664L318.033,481.811z"/>
			<path fill="#797A7D" d="M329.692,489.712c0.391,0,0.769-0.058,1.138-0.171c0.364-0.111,0.688-0.303,0.978-0.575
				c0.284-0.271,0.518-0.637,0.703-1.088c0.182-0.455,0.286-1.027,0.31-1.711h1.37c-0.036,0.816-0.178,1.535-0.421,2.16
				c-0.246,0.622-0.577,1.141-0.987,1.56c-0.407,0.416-0.875,0.733-1.408,0.949c-0.525,0.215-1.086,0.324-1.683,0.324
				c-1.664,0-2.916-0.592-3.75-1.771c-0.843-1.184-1.261-2.937-1.261-5.261v-1.715c0-2.326,0.418-4.08,1.261-5.261
				c0.835-1.179,2.082-1.771,3.736-1.771c0.632,0,1.216,0.109,1.758,0.332c0.542,0.22,1.01,0.554,1.405,0.998
				c0.396,0.445,0.715,1.006,0.952,1.686c0.239,0.681,0.371,1.48,0.397,2.399h-1.37c-0.024-0.703-0.123-1.307-0.293-1.806
				c-0.17-0.504-0.396-0.914-0.67-1.233c-0.277-0.316-0.601-0.551-0.97-0.695c-0.374-0.145-0.776-0.218-1.209-0.218
				c-0.656,0-1.209,0.125-1.661,0.374c-0.452,0.248-0.819,0.61-1.101,1.088c-0.281,0.479-0.487,1.062-0.615,1.752
				c-0.125,0.688-0.189,1.474-0.189,2.354v1.715c0,0.893,0.062,1.683,0.185,2.376c0.125,0.693,0.326,1.278,0.605,1.751
				c0.284,0.472,0.653,0.833,1.107,1.084C328.467,489.586,329.027,489.712,329.692,489.712z"/>
			<path fill="#797A7D" d="M341.758,491.16c-0.769,0-1.469-0.14-2.111-0.415c-0.636-0.276-1.19-0.7-1.654-1.266
				c-0.464-0.567-0.824-1.282-1.079-2.144c-0.256-0.864-0.383-1.884-0.383-3.067v-1.729c0-1.273,0.135-2.364,0.404-3.268
				c0.277-0.904,0.639-1.645,1.096-2.223c0.455-0.577,0.984-0.998,1.585-1.266s1.233-0.4,1.898-0.4c1.517,0,2.669,0.552,3.457,1.652
				c0.788,1.103,1.184,2.787,1.184,5.055v1.322h-8.219v0.856c0,0.928,0.092,1.734,0.282,2.419c0.187,0.684,0.45,1.252,0.793,1.701
				c0.34,0.449,0.745,0.788,1.226,1.006c0.476,0.22,1.003,0.329,1.585,0.329c0.715,0,1.337-0.131,1.867-0.4
				c0.525-0.268,1.008-0.682,1.443-1.244l0.741,1.043c-0.187,0.279-0.41,0.542-0.658,0.786c-0.251,0.243-0.547,0.459-0.883,0.646
				c-0.336,0.188-0.717,0.336-1.146,0.445C342.764,491.105,342.286,491.16,341.758,491.16z M341.515,476.846
				c-0.501,0-0.965,0.095-1.387,0.279c-0.423,0.189-0.788,0.487-1.098,0.895c-0.312,0.409-0.561,0.935-0.75,1.583
				c-0.189,0.646-0.298,1.429-0.331,2.348h6.787v-0.407c-0.017-0.741-0.092-1.403-0.229-1.983c-0.135-0.582-0.334-1.074-0.594-1.477
				s-0.591-0.712-0.991-0.92C342.518,476.952,342.049,476.846,341.515,476.846z"/>
			<path fill="#797A7D" d="M350.753,490.878h-1.429v-21.595h1.429V490.878z"/>
			<path fill="#797A7D" d="M356.264,490.878h-1.432v-21.595h1.432V490.878z"/>
			<path fill="#797A7D" d="M364.752,491.16c-0.769,0-1.469-0.14-2.108-0.415c-0.639-0.276-1.19-0.7-1.656-1.266
				c-0.464-0.567-0.823-1.282-1.079-2.144c-0.255-0.864-0.383-1.884-0.383-3.067v-1.729c0-1.273,0.137-2.364,0.409-3.268
				c0.272-0.904,0.637-1.645,1.091-2.223c0.457-0.577,0.984-0.998,1.585-1.266c0.602-0.268,1.233-0.4,1.898-0.4
				c1.517,0,2.669,0.552,3.459,1.652c0.786,1.103,1.181,2.787,1.181,5.055v1.322h-8.218v0.856c0,0.928,0.092,1.734,0.279,2.419
				c0.189,0.684,0.454,1.252,0.795,1.701c0.338,0.449,0.748,0.788,1.226,1.006c0.478,0.22,1.003,0.329,1.585,0.329
				c0.717,0,1.337-0.131,1.867-0.4c0.528-0.268,1.008-0.682,1.443-1.244l0.741,1.043c-0.187,0.279-0.407,0.542-0.658,0.786
				c-0.251,0.243-0.544,0.459-0.883,0.646c-0.336,0.188-0.717,0.336-1.143,0.445C365.758,491.105,365.282,491.16,364.752,491.16z
				 M364.508,476.846c-0.501,0-0.963,0.095-1.387,0.279c-0.421,0.189-0.786,0.487-1.1,0.895c-0.31,0.409-0.559,0.935-0.746,1.583
				c-0.189,0.646-0.298,1.429-0.333,2.348h6.787v-0.407c-0.017-0.741-0.092-1.403-0.227-1.983c-0.137-0.582-0.336-1.074-0.597-1.477
				c-0.26-0.402-0.591-0.712-0.991-0.92C365.514,476.952,365.045,476.846,364.508,476.846z"/>
			<path fill="#797A7D" d="M373.52,475.665l0.038,2.418c0.41-0.823,0.933-1.481,1.567-1.966c0.634-0.49,1.356-0.734,2.167-0.734
				c0.577,0,1.096,0.104,1.55,0.311c0.459,0.206,0.847,0.532,1.165,0.984c0.319,0.447,0.568,1.029,0.736,1.736
				c0.172,0.708,0.255,1.562,0.255,2.565v9.898h-1.406v-9.912c0-0.779-0.063-1.43-0.187-1.952c-0.123-0.528-0.298-0.947-0.528-1.262
				c-0.232-0.312-0.511-0.539-0.838-0.672c-0.331-0.14-0.696-0.206-1.107-0.206c-0.426,0-0.816,0.097-1.169,0.289
				c-0.353,0.191-0.669,0.447-0.951,0.767c-0.282,0.316-0.525,0.684-0.731,1.096c-0.206,0.411-0.367,0.845-0.494,1.292v10.561
				h-1.422v-15.213H373.52z"/>
			<path fill="#797A7D" d="M389.14,489.712c0.391,0,0.769-0.058,1.138-0.171c0.365-0.111,0.691-0.303,0.978-0.575
				c0.284-0.271,0.521-0.637,0.703-1.088c0.182-0.455,0.286-1.027,0.312-1.711h1.37c-0.036,0.816-0.178,1.535-0.424,2.16
				c-0.246,0.622-0.575,1.141-0.984,1.56c-0.409,0.416-0.878,0.733-1.405,0.949c-0.528,0.215-1.091,0.324-1.688,0.324
				c-1.661,0-2.913-0.592-3.75-1.771c-0.842-1.184-1.259-2.937-1.259-5.261v-1.715c0-2.326,0.417-4.08,1.259-5.261
				c0.837-1.179,2.084-1.771,3.739-1.771c0.629,0,1.214,0.109,1.756,0.332c0.542,0.22,1.01,0.554,1.408,0.998
				c0.396,0.445,0.712,1.006,0.952,1.686c0.239,0.681,0.369,1.48,0.397,2.399h-1.37c-0.026-0.703-0.123-1.307-0.293-1.806
				c-0.173-0.504-0.393-0.914-0.67-1.233c-0.279-0.316-0.603-0.551-0.972-0.695c-0.372-0.145-0.771-0.218-1.207-0.218
				c-0.658,0-1.211,0.125-1.661,0.374c-0.452,0.248-0.821,0.61-1.101,1.088c-0.281,0.479-0.485,1.062-0.615,1.752
				c-0.127,0.688-0.191,1.474-0.191,2.354v1.715c0,0.893,0.062,1.683,0.187,2.376c0.123,0.693,0.326,1.278,0.605,1.751
				c0.282,0.472,0.651,0.833,1.105,1.084C387.914,489.586,388.475,489.712,389.14,489.712z"/>
			<path fill="#797A7D" d="M401.206,491.16c-0.769,0-1.469-0.14-2.108-0.415c-0.639-0.276-1.19-0.7-1.656-1.266
				c-0.464-0.567-0.824-1.282-1.079-2.144c-0.255-0.864-0.383-1.884-0.383-3.067v-1.729c0-1.273,0.137-2.364,0.409-3.268
				c0.274-0.904,0.634-1.645,1.091-2.223c0.457-0.577,0.987-0.998,1.585-1.266c0.601-0.268,1.235-0.4,1.9-0.4
				c1.515,0,2.667,0.552,3.457,1.652c0.786,1.103,1.181,2.787,1.181,5.055v1.322h-8.218v0.856c0,0.928,0.094,1.734,0.281,2.419
				c0.187,0.684,0.452,1.252,0.793,1.701s0.748,0.788,1.226,1.006c0.478,0.22,1.003,0.329,1.585,0.329
				c0.717,0,1.337-0.131,1.867-0.4c0.528-0.268,1.008-0.682,1.443-1.244l0.741,1.043c-0.187,0.279-0.407,0.542-0.658,0.786
				c-0.251,0.243-0.544,0.459-0.883,0.646c-0.333,0.188-0.717,0.336-1.143,0.445C402.211,491.105,401.733,491.16,401.206,491.16z
				 M400.964,476.846c-0.504,0-0.965,0.095-1.389,0.279c-0.423,0.189-0.786,0.487-1.098,0.895c-0.312,0.409-0.561,0.935-0.748,1.583
				c-0.187,0.646-0.298,1.429-0.331,2.348h6.784v-0.407c-0.014-0.741-0.092-1.403-0.227-1.983c-0.137-0.582-0.336-1.074-0.597-1.477
				c-0.258-0.402-0.591-0.712-0.989-0.92C401.968,476.952,401.499,476.846,400.964,476.846z"/>
			<path fill="#797A7D" d="M165.513,508.363c0-0.319,0.083-0.592,0.244-0.814c0.161-0.225,0.39-0.338,0.688-0.338
				c0.298,0,0.53,0.113,0.698,0.338c0.166,0.223,0.248,0.495,0.248,0.814s-0.083,0.587-0.248,0.809
				c-0.168,0.221-0.4,0.329-0.698,0.329c-0.298,0-0.528-0.108-0.688-0.329C165.596,508.95,165.513,508.683,165.513,508.363z
				 M167.148,527.964h-1.429V512.75h1.429V527.964z"/>
			<path fill="#797A7D" d="M172.43,512.75l0.036,2.419c0.409-0.824,0.932-1.481,1.566-1.969c0.634-0.488,1.358-0.731,2.165-0.731
				c0.583,0,1.101,0.104,1.555,0.31c0.455,0.206,0.845,0.533,1.165,0.984c0.317,0.447,0.563,1.029,0.733,1.737
				c0.17,0.705,0.255,1.562,0.255,2.565v9.898H178.5v-9.915c0-0.776-0.062-1.43-0.185-1.95c-0.123-0.527-0.301-0.946-0.53-1.262
				c-0.232-0.312-0.511-0.539-0.837-0.674c-0.329-0.138-0.696-0.204-1.105-0.204c-0.426,0-0.818,0.098-1.171,0.289
				c-0.353,0.191-0.672,0.447-0.952,0.767c-0.284,0.317-0.523,0.684-0.729,1.096c-0.206,0.412-0.369,0.843-0.497,1.292v10.562h-1.42
				V512.75H172.43z"/>
			<path fill="#797A7D" d="M198.542,518.162h-7.222v8.311h8.308v1.491h-9.766V507.49h9.702v1.519h-8.244v7.665h7.222V518.162z"/>
			<path fill="#797A7D" d="M212,521.072c0,1.23-0.1,2.293-0.298,3.192c-0.201,0.899-0.49,1.645-0.864,2.234
				c-0.374,0.594-0.84,1.029-1.392,1.315c-0.554,0.289-1.183,0.431-1.879,0.431c-0.837,0-1.552-0.185-2.141-0.556
				c-0.594-0.369-1.077-0.888-1.453-1.553v7.674h-1.406V512.75h1.306l0.062,2.08c0.383-0.738,0.871-1.318,1.458-1.736
				c0.587-0.414,1.299-0.625,2.134-0.625c0.715,0,1.349,0.135,1.905,0.407c0.551,0.271,1.02,0.697,1.406,1.28
				c0.383,0.582,0.672,1.322,0.871,2.229c0.194,0.904,0.292,1.992,0.292,3.269V521.072z M210.58,519.653
				c0-1.95-0.272-3.385-0.821-4.303c-0.551-0.918-1.408-1.379-2.577-1.379c-0.435,0-0.823,0.068-1.169,0.205
				c-0.345,0.136-0.648,0.32-0.909,0.554c-0.258,0.234-0.482,0.502-0.665,0.803c-0.183,0.301-0.338,0.617-0.466,0.958v8.013
				c0.135,0.329,0.305,0.632,0.506,0.913c0.201,0.282,0.431,0.525,0.693,0.731c0.268,0.206,0.568,0.367,0.904,0.479
				c0.336,0.11,0.712,0.17,1.131,0.17c1.15,0,2-0.469,2.551-1.403c0.549-0.93,0.821-2.371,0.821-4.321V519.653z"/>
			<path fill="#797A7D" d="M215.249,508.363c0-0.319,0.081-0.592,0.242-0.814c0.161-0.225,0.39-0.338,0.691-0.338
				c0.298,0,0.53,0.113,0.696,0.338c0.166,0.223,0.25,0.495,0.25,0.814s-0.085,0.587-0.25,0.809
				c-0.166,0.221-0.397,0.329-0.696,0.329c-0.301,0-0.53-0.108-0.691-0.329C215.329,508.95,215.249,508.683,215.249,508.363z
				 M216.881,527.964h-1.429V512.75h1.429V527.964z"/>
			<path fill="#797A7D" d="M220.296,519.653c0-1.276,0.104-2.364,0.314-3.269c0.208-0.906,0.506-1.646,0.899-2.229
				c0.393-0.583,0.871-1.009,1.427-1.28c0.559-0.272,1.178-0.407,1.872-0.407c0.826,0,1.529,0.203,2.102,0.612
				c0.577,0.407,1.048,0.978,1.413,1.707v-8.422h1.422v21.598h-1.333l-0.062-1.955c-0.369,0.703-0.845,1.252-1.427,1.645
				c-0.584,0.396-1.294,0.592-2.13,0.592c-0.688,0-1.313-0.142-1.865-0.431c-0.554-0.286-1.027-0.722-1.415-1.315
				c-0.386-0.59-0.686-1.335-0.899-2.234s-0.319-1.962-0.319-3.192V519.653z M221.742,521.072c0,1.95,0.265,3.385,0.797,4.305
				c0.532,0.918,1.379,1.377,2.537,1.377c0.419,0,0.795-0.059,1.131-0.175c0.336-0.118,0.641-0.281,0.909-0.494
				c0.267-0.209,0.499-0.459,0.695-0.743c0.197-0.289,0.367-0.599,0.511-0.938v-7.887c-0.128-0.336-0.286-0.66-0.471-0.971
				c-0.187-0.31-0.414-0.579-0.672-0.809c-0.26-0.229-0.563-0.414-0.909-0.554c-0.343-0.143-0.736-0.213-1.183-0.213
				c-1.164,0-2.016,0.464-2.548,1.384c-0.533,0.926-0.797,2.357-0.797,4.298V521.072z"/>
			<path fill="#797A7D" d="M238.141,528.245c-0.767,0-1.472-0.14-2.11-0.414c-0.639-0.277-1.19-0.7-1.654-1.266
				c-0.464-0.568-0.824-1.283-1.079-2.146c-0.255-0.861-0.386-1.882-0.386-3.064v-1.73c0-1.272,0.137-2.363,0.409-3.268
				c0.272-0.904,0.639-1.645,1.093-2.222c0.457-0.577,0.982-0.999,1.585-1.267c0.601-0.267,1.235-0.399,1.898-0.399
				c1.517,0,2.669,0.551,3.458,1.651c0.79,1.103,1.183,2.788,1.183,5.055v1.323h-8.221v0.856c0,0.928,0.095,1.734,0.284,2.418
				c0.185,0.685,0.45,1.25,0.791,1.702c0.341,0.449,0.75,0.785,1.228,1.003c0.476,0.223,1.006,0.331,1.585,0.331
				c0.715,0,1.339-0.133,1.867-0.402c0.528-0.265,1.008-0.682,1.443-1.242l0.743,1.041c-0.189,0.282-0.41,0.545-0.66,0.788
				c-0.251,0.244-0.547,0.459-0.883,0.644c-0.336,0.189-0.717,0.336-1.145,0.445C239.144,528.19,238.668,528.245,238.141,528.245z
				 M237.897,513.931c-0.504,0-0.965,0.095-1.384,0.279c-0.423,0.189-0.791,0.487-1.1,0.895c-0.312,0.407-0.559,0.935-0.75,1.583
				c-0.185,0.646-0.295,1.43-0.331,2.348h6.789v-0.409c-0.019-0.741-0.095-1.401-0.234-1.983c-0.132-0.579-0.331-1.071-0.594-1.474
				c-0.258-0.405-0.587-0.713-0.989-0.921C238.903,514.035,238.434,513.931,237.897,513.931z"/>
			<path fill="#797A7D" d="M246.856,512.75l0.041,2.276c0.39-0.776,0.894-1.398,1.514-1.862c0.618-0.464,1.347-0.695,2.191-0.695
				c0.828,0,1.541,0.223,2.144,0.667c0.596,0.447,1.034,1.155,1.306,2.13c0.189-0.402,0.412-0.776,0.672-1.124
				s0.556-0.644,0.89-0.885c0.332-0.244,0.691-0.438,1.086-0.577c0.393-0.14,0.816-0.211,1.275-0.211
				c0.605,0,1.145,0.106,1.616,0.317c0.476,0.21,0.875,0.541,1.205,0.998c0.326,0.454,0.577,1.032,0.745,1.737
				c0.173,0.702,0.258,1.545,0.258,2.527v9.915h-1.417v-9.927c0-0.798-0.068-1.458-0.201-1.983c-0.13-0.525-0.32-0.944-0.561-1.257
				c-0.244-0.314-0.537-0.534-0.878-0.655s-0.712-0.183-1.122-0.183c-0.511,0.008-0.965,0.133-1.356,0.372
				c-0.393,0.239-0.724,0.544-0.996,0.913c-0.274,0.372-0.485,0.786-0.634,1.247c-0.149,0.457-0.241,0.906-0.274,1.347v10.126
				h-1.432v-10.055c0-0.748-0.066-1.378-0.199-1.884c-0.13-0.504-0.32-0.911-0.561-1.217c-0.244-0.305-0.537-0.521-0.878-0.652
				c-0.341-0.131-0.712-0.197-1.124-0.197c-0.459,0-0.866,0.098-1.228,0.289c-0.355,0.191-0.67,0.442-0.933,0.757
				c-0.262,0.315-0.482,0.677-0.662,1.094c-0.178,0.409-0.32,0.835-0.424,1.277v10.588h-1.417V512.75H246.856z"/>
			<path fill="#797A7D" d="M265.456,508.363c0-0.319,0.081-0.592,0.241-0.814c0.161-0.225,0.393-0.338,0.691-0.338
				c0.298,0,0.53,0.113,0.696,0.338c0.166,0.223,0.251,0.495,0.251,0.814s-0.085,0.587-0.251,0.809
				c-0.166,0.221-0.397,0.329-0.696,0.329c-0.298,0-0.53-0.108-0.691-0.329C265.536,508.95,265.456,508.683,265.456,508.363z
				 M267.088,527.964h-1.429V512.75h1.429V527.964z"/>
			<path fill="#797A7D" d="M270.477,519.582c0-1.152,0.125-2.168,0.374-3.051c0.246-0.882,0.592-1.623,1.034-2.229
				c0.442-0.604,0.975-1.061,1.59-1.37c0.618-0.311,1.301-0.464,2.054-0.464c0.755,0,1.448,0.153,2.068,0.464
				c0.623,0.31,1.152,0.767,1.6,1.37c0.44,0.605,0.783,1.347,1.029,2.229c0.242,0.883,0.362,1.898,0.362,3.051v1.576
				c0,1.152-0.121,2.17-0.362,3.05c-0.246,0.88-0.589,1.621-1.029,2.218c-0.447,0.594-0.975,1.046-1.592,1.354
				c-0.618,0.31-1.302,0.466-2.054,0.466c-0.757,0-1.446-0.156-2.068-0.466c-0.623-0.308-1.155-0.76-1.598-1.354
				c-0.442-0.597-0.788-1.338-1.034-2.218c-0.248-0.88-0.374-1.897-0.374-3.05V519.582z M271.911,521.158
				c0,0.873,0.083,1.656,0.241,2.347c0.163,0.693,0.4,1.283,0.71,1.772c0.31,0.485,0.691,0.861,1.143,1.124
				c0.455,0.263,0.968,0.396,1.545,0.396c0.615,0,1.148-0.133,1.602-0.396c0.45-0.263,0.824-0.639,1.124-1.124
				c0.296-0.489,0.521-1.079,0.67-1.772c0.146-0.69,0.222-1.474,0.222-2.347v-1.576c0-0.852-0.081-1.626-0.241-2.326
				c-0.164-0.698-0.397-1.292-0.708-1.787c-0.315-0.492-0.693-0.87-1.146-1.138c-0.454-0.268-0.968-0.4-1.545-0.4
				c-0.573,0-1.082,0.133-1.529,0.4c-0.45,0.268-0.828,0.646-1.138,1.138c-0.31,0.495-0.547,1.089-0.71,1.787
				c-0.159,0.7-0.241,1.475-0.241,2.326V521.158z"/>
			<path fill="#797A7D" d="M285.446,527.964h-1.432v-21.598h1.432V527.964z"/>
			<path fill="#797A7D" d="M288.833,519.582c0-1.152,0.123-2.168,0.372-3.051c0.249-0.882,0.592-1.623,1.034-2.229
				c0.442-0.604,0.975-1.061,1.593-1.37c0.617-0.311,1.301-0.464,2.051-0.464c0.755,0,1.448,0.153,2.068,0.464
				c0.625,0.31,1.157,0.767,1.6,1.37c0.442,0.605,0.786,1.347,1.029,2.229c0.244,0.883,0.364,1.898,0.364,3.051v1.576
				c0,1.152-0.121,2.17-0.364,3.05s-0.587,1.621-1.029,2.218c-0.442,0.594-0.973,1.046-1.593,1.354
				c-0.617,0.31-1.301,0.466-2.051,0.466c-0.757,0-1.448-0.156-2.071-0.466c-0.62-0.308-1.155-0.76-1.597-1.354
				c-0.442-0.597-0.786-1.338-1.034-2.218s-0.372-1.897-0.372-3.05V519.582z M290.267,521.158c0,0.873,0.081,1.656,0.239,2.347
				c0.163,0.693,0.4,1.283,0.712,1.772c0.31,0.485,0.691,0.861,1.143,1.124s0.968,0.396,1.545,0.396c0.615,0,1.145-0.133,1.6-0.396
				c0.45-0.263,0.826-0.639,1.124-1.124c0.296-0.489,0.521-1.079,0.672-1.772c0.149-0.69,0.223-1.474,0.223-2.347v-1.576
				c0-0.852-0.081-1.626-0.242-2.326c-0.163-0.698-0.4-1.292-0.709-1.787c-0.315-0.492-0.693-0.87-1.143-1.138
				c-0.455-0.268-0.97-0.4-1.548-0.4c-0.573,0-1.082,0.133-1.526,0.4c-0.449,0.268-0.828,0.646-1.138,1.138
				c-0.312,0.495-0.549,1.089-0.712,1.787c-0.159,0.7-0.239,1.475-0.239,2.326V521.158z"/>
			<path fill="#797A7D" d="M301.717,519.653c0-1.276,0.102-2.364,0.305-3.269c0.206-0.906,0.502-1.646,0.89-2.229
				c0.388-0.583,0.859-1.009,1.417-1.28c0.561-0.272,1.188-0.407,1.888-0.407c0.84,0,1.555,0.211,2.134,0.632
				c0.578,0.421,1.051,1.013,1.417,1.77l0.078-2.12h1.316v15.578c0,0.994-0.109,1.851-0.327,2.564
				c-0.218,0.72-0.528,1.309-0.933,1.772c-0.404,0.467-0.894,0.805-1.462,1.027c-0.575,0.22-1.211,0.331-1.919,0.331
				c-0.35,0-0.712-0.047-1.086-0.145c-0.376-0.09-0.746-0.229-1.107-0.414c-0.362-0.18-0.703-0.399-1.03-0.66
				c-0.322-0.255-0.599-0.554-0.828-0.892l0.665-1.124c0.476,0.601,0.994,1.048,1.547,1.342c0.552,0.296,1.131,0.444,1.737,0.444
				c0.537,0,1.013-0.075,1.427-0.227c0.412-0.149,0.757-0.391,1.032-0.725c0.279-0.331,0.49-0.764,0.634-1.292
				c0.144-0.532,0.215-1.176,0.215-1.934v-2.335c-0.362,0.687-0.838,1.219-1.417,1.604c-0.58,0.383-1.28,0.577-2.108,0.577
				c-0.691,0-1.313-0.142-1.865-0.431c-0.556-0.286-1.027-0.722-1.415-1.315c-0.386-0.59-0.687-1.335-0.895-2.234
				c-0.208-0.899-0.312-1.962-0.312-3.192V519.653z M303.151,521.072c0,1.95,0.268,3.385,0.805,4.305
				c0.537,0.918,1.379,1.377,2.529,1.377c0.426,0,0.81-0.062,1.15-0.185c0.341-0.12,0.644-0.288,0.906-0.506
				c0.265-0.216,0.497-0.469,0.691-0.76c0.196-0.289,0.364-0.608,0.497-0.956v-7.773c-0.128-0.348-0.279-0.677-0.466-0.991
				c-0.182-0.315-0.402-0.59-0.663-0.828c-0.263-0.242-0.563-0.431-0.909-0.57c-0.345-0.143-0.738-0.213-1.178-0.213
				c-1.171,0-2.021,0.464-2.558,1.384c-0.537,0.926-0.805,2.357-0.805,4.298V521.072z"/>
			<path fill="#797A7D" d="M314.893,508.363c0-0.319,0.083-0.592,0.246-0.814c0.161-0.225,0.391-0.338,0.689-0.338
				c0.298,0,0.53,0.113,0.698,0.338c0.168,0.223,0.249,0.495,0.249,0.814s-0.081,0.587-0.249,0.809
				c-0.168,0.221-0.4,0.329-0.698,0.329c-0.298,0-0.528-0.108-0.689-0.329C314.976,508.95,314.893,508.683,314.893,508.363z
				 M316.533,527.964h-1.434V512.75h1.434V527.964z"/>
			<path fill="#797A7D" d="M324.827,526.797c0.391,0,0.771-0.06,1.138-0.17c0.367-0.111,0.693-0.304,0.979-0.575
				c0.284-0.272,0.519-0.637,0.701-1.091c0.182-0.452,0.289-1.025,0.312-1.709h1.37c-0.033,0.816-0.175,1.536-0.424,2.16
				c-0.246,0.623-0.575,1.141-0.984,1.56c-0.407,0.417-0.878,0.733-1.406,0.949c-0.527,0.216-1.091,0.324-1.687,0.324
				c-1.661,0-2.913-0.592-3.75-1.772c-0.84-1.184-1.259-2.935-1.259-5.258v-1.716c0-2.326,0.419-4.079,1.259-5.261
				c0.837-1.178,2.084-1.77,3.739-1.77c0.629,0,1.216,0.108,1.756,0.331c0.544,0.22,1.013,0.554,1.408,0.996
				c0.396,0.447,0.715,1.009,0.951,1.688c0.242,0.682,0.37,1.481,0.398,2.399h-1.37c-0.024-0.703-0.123-1.309-0.293-1.808
				c-0.17-0.502-0.393-0.911-0.67-1.23c-0.277-0.317-0.601-0.552-0.973-0.696c-0.369-0.146-0.771-0.218-1.207-0.218
				c-0.658,0-1.209,0.126-1.661,0.372c-0.452,0.251-0.821,0.612-1.098,1.091c-0.284,0.478-0.487,1.06-0.615,1.751
				c-0.128,0.688-0.192,1.475-0.192,2.354v1.716c0,0.89,0.062,1.683,0.185,2.376s0.327,1.277,0.608,1.751
				c0.282,0.471,0.648,0.833,1.103,1.084C323.602,526.672,324.162,526.797,324.827,526.797z"/>
			<path fill="#797A7D" d="M339.641,527.964c-0.069-0.256-0.123-0.568-0.166-0.949c-0.045-0.381-0.071-0.767-0.09-1.159
				c-0.177,0.316-0.39,0.619-0.639,0.906c-0.246,0.286-0.528,0.537-0.852,0.76c-0.317,0.22-0.674,0.395-1.067,0.527
				c-0.391,0.128-0.812,0.196-1.264,0.196c-0.57,0-1.089-0.09-1.553-0.268c-0.466-0.18-0.863-0.444-1.195-0.802
				c-0.333-0.355-0.589-0.803-0.767-1.337c-0.18-0.535-0.268-1.155-0.268-1.87c0-0.702,0.109-1.354,0.332-1.947
				c0.22-0.594,0.549-1.107,0.991-1.538c0.438-0.433,0.984-0.769,1.64-1.013c0.658-0.244,1.42-0.364,2.288-0.364h2.34v-2.125
				c0-1.086-0.246-1.867-0.736-2.341c-0.49-0.473-1.209-0.71-2.153-0.71c-0.443,0-0.85,0.073-1.221,0.226
				c-0.369,0.151-0.688,0.356-0.951,0.624s-0.469,0.587-0.613,0.956c-0.147,0.369-0.218,0.776-0.218,1.217l-1.42-0.015
				c0-0.589,0.109-1.154,0.319-1.694c0.213-0.537,0.516-1.013,0.909-1.427c0.391-0.412,0.864-0.738,1.42-0.984
				c0.551-0.241,1.164-0.364,1.839-0.364c0.622,0,1.192,0.083,1.706,0.246c0.516,0.166,0.96,0.426,1.337,0.788
				c0.376,0.359,0.667,0.828,0.875,1.405c0.208,0.575,0.312,1.278,0.312,2.102v7.762c0,0.263,0.007,0.532,0.026,0.816
				c0.017,0.279,0.04,0.554,0.069,0.818c0.031,0.27,0.071,0.525,0.116,0.762c0.047,0.239,0.1,0.447,0.161,0.628v0.168H339.641z
				 M335.743,526.737c0.442,0,0.859-0.065,1.247-0.203c0.386-0.135,0.733-0.324,1.041-0.561c0.308-0.239,0.573-0.519,0.797-0.838
				c0.228-0.319,0.407-0.66,0.544-1.024v-3.699h-2.134c-1.337,0-2.343,0.308-3.017,0.928s-1.011,1.453-1.011,2.502
				c0,1.005,0.225,1.736,0.672,2.202C334.331,526.508,334.95,526.737,335.743,526.737z"/>
			<path fill="#797A7D" d="M346.235,527.964h-1.429v-21.598h1.429V527.964z"/>
			<path fill="#797A7D" d="M143.553,544.575l5.637,18.013l5.665-18.013h1.928v20.472h-1.458v-8.9l0.128-8.899l-5.701,17.8h-1.126
				l-5.674-17.715l0.128,8.814v8.9h-1.458v-20.472H143.553z"/>
			<path fill="#797A7D" d="M160.35,556.667c0-1.152,0.121-2.17,0.369-3.053c0.249-0.88,0.591-1.62,1.036-2.227
				c0.443-0.604,0.973-1.06,1.59-1.37c0.618-0.31,1.304-0.464,2.054-0.464c0.757,0,1.446,0.154,2.07,0.464
				c0.62,0.311,1.152,0.767,1.595,1.37c0.445,0.606,0.788,1.347,1.029,2.227c0.244,0.883,0.364,1.9,0.364,3.053v1.574
				c0,1.154-0.121,2.172-0.364,3.05c-0.242,0.883-0.584,1.623-1.029,2.218c-0.443,0.596-0.975,1.048-1.59,1.355
				c-0.618,0.31-1.302,0.466-2.052,0.466c-0.757,0-1.448-0.156-2.07-0.466c-0.625-0.308-1.155-0.76-1.598-1.355
				c-0.445-0.595-0.788-1.335-1.036-2.218c-0.249-0.878-0.369-1.896-0.369-3.05V556.667z M161.779,558.241
				c0,0.873,0.081,1.656,0.246,2.347c0.161,0.696,0.397,1.285,0.708,1.775c0.312,0.484,0.693,0.861,1.143,1.124
				c0.452,0.26,0.968,0.395,1.547,0.395c0.613,0,1.148-0.135,1.598-0.395c0.454-0.263,0.828-0.64,1.126-1.124
				c0.298-0.49,0.521-1.079,0.67-1.775c0.149-0.69,0.225-1.474,0.225-2.347v-1.574c0-0.852-0.083-1.628-0.244-2.326
				c-0.163-0.698-0.397-1.294-0.71-1.786c-0.31-0.492-0.691-0.871-1.145-1.139c-0.45-0.267-0.966-0.399-1.543-0.399
				c-0.573,0-1.082,0.133-1.531,0.399c-0.445,0.268-0.823,0.646-1.136,1.139c-0.31,0.492-0.547,1.088-0.708,1.786
				c-0.166,0.698-0.246,1.475-0.246,2.326V558.241z"/>
			<path fill="#797A7D" d="M173.22,556.738c0-1.275,0.106-2.364,0.314-3.268c0.206-0.906,0.509-1.647,0.902-2.229
				c0.39-0.582,0.866-1.008,1.422-1.28c0.559-0.272,1.186-0.407,1.875-0.407c0.826,0,1.528,0.204,2.104,0.61
				c0.575,0.407,1.043,0.976,1.413,1.709v-8.424h1.417v21.598h-1.328l-0.066-1.952c-0.365,0.702-0.843,1.249-1.425,1.642
				c-0.582,0.397-1.294,0.594-2.127,0.594c-0.691,0-1.313-0.144-1.867-0.433c-0.554-0.284-1.025-0.722-1.413-1.313
				c-0.388-0.589-0.686-1.334-0.899-2.233c-0.215-0.899-0.322-1.964-0.322-3.192V556.738z M174.664,558.158
				c0,1.95,0.268,3.384,0.8,4.302c0.532,0.921,1.379,1.377,2.539,1.377c0.414,0,0.795-0.057,1.131-0.173
				c0.336-0.12,0.639-0.281,0.906-0.494c0.27-0.208,0.501-0.459,0.698-0.743c0.194-0.288,0.365-0.599,0.511-0.937v-7.888
				c-0.128-0.336-0.286-0.66-0.473-0.97c-0.189-0.311-0.412-0.58-0.672-0.81c-0.261-0.229-0.563-0.414-0.907-0.556
				c-0.348-0.14-0.74-0.211-1.183-0.211c-1.167,0-2.019,0.464-2.551,1.385c-0.532,0.925-0.8,2.356-0.8,4.297V558.158z"/>
			<path fill="#797A7D" d="M191.064,565.33c-0.767,0-1.472-0.14-2.11-0.416c-0.639-0.277-1.19-0.698-1.654-1.266
				c-0.466-0.566-0.826-1.28-1.082-2.145c-0.255-0.861-0.381-1.884-0.381-3.064v-1.729c0-1.275,0.135-2.364,0.407-3.268
				c0.272-0.904,0.639-1.646,1.091-2.223c0.457-0.577,0.984-0.998,1.588-1.266c0.601-0.268,1.233-0.4,1.897-0.4
				c1.517,0,2.672,0.55,3.458,1.649c0.788,1.103,1.183,2.788,1.183,5.057v1.321h-8.218v0.858c0,0.928,0.092,1.734,0.281,2.416
				c0.187,0.687,0.45,1.252,0.791,1.704c0.338,0.447,0.75,0.785,1.226,1.003c0.478,0.223,1.008,0.332,1.585,0.332
				c0.717,0,1.34-0.133,1.867-0.402c0.53-0.266,1.011-0.682,1.443-1.242l0.743,1.041c-0.187,0.281-0.407,0.542-0.658,0.788
				c-0.253,0.241-0.547,0.459-0.885,0.644c-0.336,0.189-0.717,0.336-1.143,0.444C192.068,565.276,191.592,565.33,191.064,565.33z
				 M190.821,551.017c-0.504,0-0.965,0.092-1.387,0.279c-0.421,0.189-0.788,0.485-1.1,0.895c-0.312,0.407-0.559,0.935-0.746,1.583
				c-0.189,0.644-0.3,1.427-0.336,2.348h6.789v-0.41c-0.019-0.74-0.095-1.4-0.229-1.982c-0.137-0.58-0.333-1.072-0.596-1.475
				c-0.26-0.404-0.589-0.712-0.989-0.923S191.358,551.017,190.821,551.017z"/>
			<path fill="#797A7D" d="M200.062,565.047h-1.429v-21.598h1.429V565.047z"/>
			<path fill="#797A7D" d="M205.57,565.047h-1.429v-21.598h1.429V565.047z"/>
			<path fill="#797A7D" d="M209.442,545.448c0-0.319,0.083-0.592,0.246-0.816c0.161-0.225,0.39-0.336,0.686-0.336
				c0.301,0,0.535,0.111,0.701,0.336c0.166,0.225,0.249,0.497,0.249,0.816s-0.083,0.587-0.249,0.81
				c-0.166,0.218-0.4,0.329-0.701,0.329c-0.296,0-0.525-0.111-0.686-0.329C209.524,546.035,209.442,545.768,209.442,545.448z
				 M211.079,565.047h-1.432v-15.211h1.432V565.047z"/>
			<path fill="#797A7D" d="M216.358,549.836l0.041,2.418c0.409-0.823,0.93-1.481,1.564-1.969c0.637-0.487,1.356-0.731,2.167-0.731
				c0.578,0,1.096,0.104,1.552,0.308c0.457,0.209,0.843,0.535,1.162,0.987c0.322,0.447,0.565,1.026,0.736,1.736
				c0.173,0.706,0.258,1.562,0.258,2.563v9.898h-1.405v-9.913c0-0.776-0.064-1.429-0.187-1.952
				c-0.125-0.525-0.301-0.944-0.532-1.259c-0.23-0.312-0.507-0.54-0.835-0.675c-0.329-0.137-0.698-0.203-1.107-0.203
				c-0.424,0-0.814,0.095-1.167,0.286c-0.357,0.194-0.672,0.45-0.956,0.767c-0.279,0.319-0.521,0.684-0.727,1.099
				c-0.206,0.411-0.372,0.842-0.5,1.292v10.559h-1.42v-15.211H216.358z"/>
			<path fill="#797A7D" d="M227.109,556.738c0-1.275,0.102-2.364,0.308-3.268c0.201-0.906,0.5-1.647,0.887-2.229
				c0.388-0.582,0.861-1.008,1.42-1.28s1.186-0.407,1.884-0.407c0.845,0,1.557,0.211,2.134,0.632
				c0.58,0.422,1.053,1.011,1.422,1.771l0.073-2.12h1.315v15.577c0,0.994-0.106,1.851-0.324,2.565
				c-0.218,0.717-0.528,1.309-0.933,1.772s-0.892,0.805-1.465,1.026c-0.57,0.221-1.209,0.332-1.919,0.332
				c-0.348,0-0.708-0.048-1.084-0.145c-0.376-0.09-0.745-0.229-1.105-0.414c-0.364-0.183-0.708-0.4-1.029-0.66
				c-0.324-0.258-0.601-0.557-0.831-0.893l0.665-1.124c0.478,0.599,0.991,1.049,1.545,1.342c0.554,0.296,1.134,0.445,1.739,0.445
				c0.538,0,1.013-0.076,1.425-0.228c0.412-0.149,0.757-0.391,1.037-0.724c0.274-0.332,0.487-0.765,0.634-1.292
				c0.142-0.533,0.215-1.177,0.215-1.934v-2.336c-0.367,0.685-0.84,1.219-1.422,1.604c-0.578,0.384-1.28,0.577-2.106,0.577
				c-0.691,0-1.311-0.144-1.867-0.433c-0.554-0.284-1.025-0.722-1.411-1.313c-0.388-0.589-0.686-1.334-0.896-2.233
				c-0.208-0.899-0.312-1.964-0.312-3.192V556.738z M228.538,558.158c0,1.95,0.27,3.384,0.81,4.302
				c0.535,0.921,1.377,1.377,2.529,1.377c0.424,0,0.81-0.059,1.15-0.182c0.34-0.121,0.644-0.291,0.906-0.507
				c0.265-0.218,0.495-0.469,0.691-0.76c0.196-0.288,0.362-0.607,0.499-0.955v-7.773c-0.127-0.349-0.284-0.678-0.466-0.992
				c-0.185-0.314-0.407-0.589-0.667-0.83c-0.258-0.239-0.561-0.429-0.904-0.57c-0.346-0.14-0.741-0.211-1.183-0.211
				c-1.167,0-2.021,0.464-2.556,1.385c-0.54,0.925-0.81,2.356-0.81,4.297V558.158z"/>
			<path fill="#797A7D" d="M253.529,565.047c-0.069-0.254-0.123-0.568-0.168-0.947c-0.041-0.381-0.071-0.769-0.088-1.161
				c-0.18,0.319-0.39,0.622-0.639,0.906c-0.249,0.288-0.533,0.539-0.85,0.759c-0.319,0.223-0.677,0.398-1.067,0.53
				c-0.39,0.128-0.814,0.196-1.266,0.196c-0.57,0-1.089-0.09-1.553-0.27s-0.863-0.444-1.195-0.8
				c-0.331-0.357-0.589-0.802-0.767-1.337c-0.18-0.535-0.27-1.157-0.27-1.869c0-0.705,0.111-1.354,0.332-1.947
				c0.222-0.597,0.554-1.107,0.989-1.539c0.442-0.433,0.989-0.771,1.645-1.013c0.655-0.243,1.419-0.364,2.291-0.364h2.338v-2.127
				c0-1.086-0.244-1.865-0.736-2.338c-0.49-0.474-1.207-0.71-2.153-0.71c-0.443,0-0.85,0.073-1.221,0.225s-0.688,0.357-0.954,0.625
				s-0.469,0.584-0.613,0.956c-0.145,0.369-0.218,0.773-0.218,1.216l-1.417-0.014c0-0.59,0.104-1.155,0.317-1.694
				c0.216-0.537,0.516-1.013,0.909-1.428c0.393-0.411,0.866-0.74,1.42-0.984c0.554-0.241,1.167-0.364,1.841-0.364
				c0.622,0,1.19,0.081,1.706,0.244c0.513,0.166,0.96,0.429,1.334,0.79c0.374,0.36,0.667,0.828,0.875,1.406
				c0.208,0.574,0.315,1.277,0.315,2.101v7.762c0,0.263,0.009,0.532,0.023,0.816c0.019,0.279,0.042,0.554,0.071,0.819
				c0.031,0.27,0.066,0.521,0.116,0.762c0.047,0.239,0.1,0.447,0.159,0.625v0.168H253.529z M249.629,563.823
				c0.445,0,0.859-0.066,1.247-0.204c0.388-0.135,0.733-0.324,1.041-0.562c0.308-0.237,0.573-0.519,0.8-0.836
				c0.225-0.319,0.407-0.662,0.544-1.024v-3.701h-2.137c-1.337,0-2.343,0.311-3.015,0.931c-0.672,0.62-1.011,1.453-1.011,2.501
				c0,1.006,0.223,1.737,0.672,2.203C248.217,563.594,248.839,563.823,249.629,563.823z"/>
			<path fill="#797A7D" d="M259.897,549.836l0.036,2.418c0.409-0.823,0.93-1.481,1.566-1.969s1.358-0.731,2.167-0.731
				c0.58,0,1.096,0.104,1.552,0.308c0.457,0.209,0.843,0.535,1.162,0.987c0.319,0.447,0.565,1.026,0.736,1.736
				c0.168,0.706,0.255,1.562,0.255,2.563v9.898h-1.408v-9.913c0-0.776-0.059-1.429-0.182-1.952
				c-0.125-0.525-0.301-0.944-0.533-1.259c-0.229-0.312-0.509-0.54-0.835-0.675c-0.329-0.137-0.698-0.203-1.105-0.203
				c-0.428,0-0.818,0.095-1.173,0.286c-0.351,0.194-0.67,0.45-0.949,0.767c-0.281,0.319-0.525,0.684-0.731,1.099
				c-0.204,0.411-0.369,0.842-0.497,1.292v10.559h-1.417v-15.211H259.897z"/>
			<path fill="#797A7D" d="M270.633,556.738c0-1.275,0.102-2.364,0.312-3.268c0.208-0.906,0.506-1.647,0.902-2.229
				c0.39-0.582,0.868-1.008,1.424-1.28c0.559-0.272,1.181-0.407,1.872-0.407c0.826,0,1.526,0.204,2.104,0.61
				c0.575,0.407,1.048,0.976,1.41,1.709v-8.424h1.422v21.598h-1.333l-0.063-1.952c-0.367,0.702-0.84,1.249-1.425,1.642
				c-0.584,0.397-1.294,0.594-2.127,0.594c-0.691,0-1.315-0.144-1.867-0.433c-0.554-0.284-1.025-0.722-1.415-1.313
				c-0.386-0.589-0.687-1.334-0.899-2.233s-0.317-1.964-0.317-3.192V556.738z M272.077,558.158c0,1.95,0.265,3.384,0.797,4.302
				c0.532,0.921,1.379,1.377,2.537,1.377c0.419,0,0.795-0.057,1.134-0.173c0.336-0.12,0.639-0.281,0.906-0.494
				c0.267-0.208,0.501-0.459,0.698-0.743c0.197-0.288,0.365-0.599,0.509-0.937v-7.888c-0.127-0.336-0.286-0.66-0.471-0.97
				c-0.187-0.311-0.414-0.58-0.672-0.81c-0.261-0.229-0.563-0.414-0.907-0.556c-0.345-0.14-0.74-0.211-1.183-0.211
				c-1.167,0-2.019,0.464-2.551,1.385c-0.532,0.925-0.797,2.356-0.797,4.297V558.158z"/>
			<path fill="#797A7D" d="M298.561,559.324h-6.978l-1.588,5.723h-1.519l5.93-20.472h1.356l5.93,20.472h-1.521L298.561,559.324z
				 M292.003,557.822h6.134l-3.067-10.982L292.003,557.822z"/>
			<path fill="#797A7D" d="M305.501,549.836l0.038,2.418c0.409-0.823,0.93-1.481,1.566-1.969c0.634-0.487,1.356-0.731,2.166-0.731
				c0.582,0,1.098,0.104,1.555,0.308c0.454,0.209,0.842,0.535,1.162,0.987c0.319,0.447,0.563,1.026,0.736,1.736
				c0.168,0.706,0.256,1.562,0.256,2.563v9.898h-1.408v-9.913c0-0.776-0.059-1.429-0.182-1.952
				c-0.128-0.525-0.303-0.944-0.532-1.259c-0.229-0.312-0.511-0.54-0.838-0.675c-0.327-0.137-0.698-0.203-1.103-0.203
				c-0.429,0-0.819,0.095-1.174,0.286c-0.353,0.194-0.67,0.45-0.951,0.767c-0.282,0.319-0.523,0.684-0.727,1.099
				c-0.206,0.411-0.372,0.842-0.502,1.292v10.559h-1.415v-15.211H305.501z"/>
			<path fill="#797A7D" d="M324.061,565.047c-0.069-0.254-0.125-0.568-0.168-0.947c-0.043-0.381-0.071-0.769-0.09-1.161
				c-0.178,0.319-0.391,0.622-0.639,0.906c-0.244,0.288-0.528,0.539-0.85,0.759c-0.319,0.223-0.674,0.398-1.067,0.53
				c-0.391,0.128-0.814,0.196-1.264,0.196c-0.573,0-1.089-0.09-1.552-0.27c-0.466-0.18-0.864-0.444-1.198-0.8
				c-0.331-0.357-0.589-0.802-0.767-1.337c-0.177-0.535-0.268-1.157-0.268-1.869c0-0.705,0.109-1.354,0.334-1.947
				c0.22-0.597,0.549-1.107,0.989-1.539c0.44-0.433,0.986-0.771,1.642-1.013c0.655-0.243,1.42-0.364,2.286-0.364h2.343v-2.127
				c0-1.086-0.249-1.865-0.736-2.338c-0.492-0.474-1.209-0.71-2.153-0.71c-0.445,0-0.85,0.073-1.221,0.225
				c-0.369,0.151-0.691,0.357-0.954,0.625s-0.468,0.584-0.613,0.956c-0.146,0.369-0.218,0.773-0.218,1.216l-1.417-0.014
				c0-0.59,0.106-1.155,0.319-1.694c0.213-0.537,0.514-1.013,0.907-1.428c0.393-0.411,0.866-0.74,1.419-0.984
				c0.551-0.241,1.167-0.364,1.841-0.364c0.622,0,1.19,0.081,1.704,0.244c0.518,0.166,0.961,0.429,1.337,0.79
				c0.376,0.36,0.67,0.828,0.875,1.406c0.208,0.574,0.315,1.277,0.315,2.101v7.762c0,0.263,0.007,0.532,0.023,0.816
				c0.017,0.279,0.043,0.554,0.069,0.819c0.033,0.27,0.071,0.521,0.118,0.762c0.045,0.239,0.097,0.447,0.159,0.625v0.168H324.061z
				 M320.163,563.823c0.44,0,0.856-0.066,1.245-0.204c0.386-0.135,0.734-0.324,1.043-0.562c0.306-0.237,0.57-0.519,0.798-0.836
				c0.227-0.319,0.407-0.662,0.544-1.024v-3.701h-2.137c-1.334,0-2.343,0.311-3.017,0.931s-1.008,1.453-1.008,2.501
				c0,1.006,0.223,1.737,0.67,2.203C318.75,563.594,319.368,563.823,320.163,563.823z"/>
			<path fill="#797A7D" d="M330.653,565.047h-1.427v-21.598h1.427V565.047z"/>
			<path fill="#797A7D" d="M338.261,562.477l3.299-12.641h1.519l-4.867,17.646c-0.102,0.346-0.23,0.736-0.386,1.167
				c-0.152,0.431-0.355,0.833-0.613,1.209c-0.255,0.374-0.568,0.69-0.941,0.946c-0.367,0.258-0.816,0.388-1.344,0.388
				c-0.078,0-0.163-0.009-0.258-0.021c-0.092-0.015-0.189-0.031-0.287-0.05c-0.099-0.017-0.191-0.04-0.274-0.064
				c-0.085-0.021-0.154-0.045-0.206-0.062l-0.015-1.436c0.088,0.03,0.199,0.052,0.341,0.07c0.142,0.02,0.244,0.031,0.312,0.031
				c0.341,0,0.644-0.062,0.901-0.178c0.261-0.118,0.49-0.291,0.691-0.521c0.201-0.229,0.376-0.516,0.532-0.856
				c0.149-0.344,0.286-0.738,0.405-1.188l0.54-1.969l-4.347-15.113h1.56L338.261,562.477z"/>
			<path fill="#797A7D" d="M352.447,561.308c0-0.31-0.052-0.599-0.159-0.871c-0.106-0.271-0.279-0.534-0.523-0.79
				c-0.244-0.251-0.563-0.509-0.958-0.771c-0.397-0.26-0.89-0.544-1.477-0.843c-0.632-0.31-1.192-0.607-1.689-0.896
				c-0.492-0.284-0.909-0.594-1.245-0.923c-0.338-0.336-0.596-0.71-0.774-1.126c-0.177-0.419-0.27-0.914-0.27-1.484
				c0-0.562,0.099-1.091,0.289-1.583c0.194-0.489,0.466-0.92,0.826-1.285c0.357-0.366,0.793-0.652,1.302-0.865
				c0.511-0.209,1.083-0.315,1.713-0.315c0.672,0,1.278,0.109,1.815,0.332c0.538,0.218,0.992,0.524,1.363,0.918
				c0.369,0.393,0.651,0.863,0.85,1.412c0.199,0.552,0.293,1.146,0.293,1.796h-1.417c0-0.397-0.066-0.771-0.192-1.136
				c-0.127-0.359-0.314-0.677-0.563-0.953c-0.249-0.277-0.549-0.497-0.906-0.66c-0.36-0.166-0.774-0.246-1.243-0.246
				c-0.485,0-0.899,0.071-1.24,0.215c-0.341,0.147-0.62,0.341-0.84,0.578c-0.225,0.238-0.386,0.511-0.488,0.816
				c-0.102,0.305-0.156,0.61-0.156,0.92c0,0.311,0.045,0.582,0.13,0.823c0.085,0.239,0.241,0.472,0.464,0.696
				c0.229,0.225,0.532,0.456,0.916,0.695c0.386,0.237,0.878,0.519,1.486,0.836c0.636,0.31,1.209,0.61,1.723,0.898
				c0.511,0.291,0.944,0.613,1.297,0.964c0.355,0.353,0.627,0.75,0.818,1.188c0.189,0.442,0.289,0.968,0.289,1.576
				c0,0.629-0.104,1.195-0.308,1.701c-0.206,0.507-0.497,0.938-0.875,1.292c-0.381,0.357-0.835,0.632-1.368,0.826
				c-0.532,0.191-1.124,0.288-1.772,0.288c-0.745,0-1.41-0.123-1.978-0.359c-0.573-0.239-1.053-0.561-1.439-0.963
				c-0.388-0.404-0.681-0.873-0.88-1.406c-0.201-0.537-0.303-1.1-0.303-1.703h1.432c0.026,0.604,0.137,1.093,0.338,1.477
				c0.201,0.386,0.45,0.69,0.748,0.916c0.298,0.222,0.632,0.378,0.999,0.464c0.364,0.082,0.729,0.127,1.083,0.127
				c0.469,0,0.885-0.068,1.25-0.205c0.36-0.136,0.663-0.317,0.906-0.547c0.244-0.232,0.426-0.504,0.552-0.816
				C352.388,561.999,352.447,561.665,352.447,561.308z"/>
			<path fill="#797A7D" d="M357.166,545.448c0-0.319,0.083-0.592,0.244-0.816c0.161-0.225,0.391-0.336,0.689-0.336
				c0.3,0,0.53,0.111,0.698,0.336c0.166,0.225,0.249,0.497,0.249,0.816s-0.083,0.587-0.249,0.81
				c-0.168,0.218-0.397,0.329-0.698,0.329c-0.298,0-0.528-0.111-0.689-0.329C357.249,546.035,357.166,545.768,357.166,545.448z
				 M358.801,565.047h-1.429v-15.211h1.429V565.047z"/>
			<path fill="#797A7D" d="M369.641,561.308c0-0.31-0.055-0.599-0.161-0.871c-0.104-0.271-0.281-0.534-0.523-0.79
				c-0.246-0.251-0.563-0.509-0.958-0.771c-0.398-0.26-0.89-0.544-1.477-0.843c-0.629-0.31-1.192-0.607-1.689-0.896
				c-0.49-0.284-0.906-0.594-1.245-0.923c-0.336-0.336-0.594-0.71-0.771-1.126c-0.18-0.419-0.272-0.914-0.272-1.484
				c0-0.562,0.099-1.091,0.289-1.583c0.192-0.489,0.466-0.92,0.826-1.285c0.357-0.366,0.793-0.652,1.304-0.865
				c0.511-0.209,1.081-0.315,1.711-0.315c0.674,0,1.28,0.109,1.817,0.332c0.537,0.218,0.989,0.524,1.36,0.918
				c0.372,0.393,0.653,0.863,0.85,1.412c0.196,0.552,0.296,1.146,0.296,1.796h-1.42c0-0.397-0.064-0.771-0.192-1.136
				c-0.13-0.359-0.314-0.677-0.563-0.953c-0.246-0.277-0.549-0.497-0.906-0.66c-0.36-0.166-0.774-0.246-1.242-0.246
				c-0.485,0-0.899,0.071-1.238,0.215c-0.343,0.147-0.623,0.341-0.842,0.578c-0.225,0.238-0.383,0.511-0.488,0.816
				c-0.102,0.305-0.154,0.61-0.154,0.92c0,0.311,0.043,0.582,0.13,0.823c0.081,0.239,0.239,0.472,0.464,0.696
				c0.227,0.225,0.532,0.456,0.916,0.695c0.381,0.237,0.875,0.519,1.481,0.836c0.639,0.31,1.214,0.61,1.725,0.898
				c0.514,0.291,0.944,0.613,1.299,0.964c0.353,0.353,0.622,0.75,0.818,1.188c0.189,0.442,0.287,0.968,0.287,1.576
				c0,0.629-0.104,1.195-0.305,1.701c-0.206,0.507-0.5,0.938-0.878,1.292c-0.379,0.357-0.833,0.632-1.366,0.826
				c-0.535,0.191-1.126,0.288-1.772,0.288c-0.748,0-1.411-0.123-1.981-0.359c-0.573-0.239-1.051-0.561-1.438-0.963
				c-0.386-0.404-0.682-0.873-0.883-1.406c-0.201-0.537-0.298-1.1-0.298-1.703h1.432c0.024,0.604,0.137,1.093,0.338,1.477
				c0.199,0.386,0.447,0.69,0.748,0.916c0.298,0.222,0.629,0.378,0.996,0.464c0.364,0.082,0.729,0.127,1.086,0.127
				c0.468,0,0.885-0.068,1.247-0.205c0.362-0.136,0.662-0.317,0.908-0.547c0.242-0.232,0.424-0.504,0.549-0.816
				C369.58,561.999,369.641,561.665,369.641,561.308z"/>
		</g>
	</g>
	<g>
		<g>
			<path fill="#E03127" d="M150.196,113.954c-4.158-1.21-8.566,1.198-9.794,5.351l-20.272,68.524
				c-1.229,4.152,1.164,8.555,5.317,9.784l68.629,20.299c4.153,1.229,6.546,5.631,5.318,9.784l-20.378,68.901
				c-1.229,4.153,1.165,8.556,5.317,9.784l68.62,20.299c4.153,1.229,8.556-1.164,9.785-5.317l20.355-68.792
				c1.229-4.153,0.272-10.501-2.125-14.107l-66.912-100.641c-2.397-3.606-7.762-7.547-11.92-8.757L150.196,113.954z"/>
		</g>
		<g>
			<path fill="#F7941E" d="M361.871,267.958c4.151,1.233,8.553-1.155,9.782-5.308l20.392-68.912
				c1.229-4.153-1.164-8.555-5.316-9.783l-68.634-20.294c-4.153-1.228-6.546-5.631-5.318-9.784l20.379-68.92
				c1.228-4.153-1.165-8.555-5.318-9.783l-68.625-20.29c-4.153-1.228-8.502,1.181-9.666,5.352l-15.383,55.173
				c-1.163,4.171-0.697,10.832,1.035,14.801l47.059,107.817c1.732,3.969,6.546,8.225,10.698,9.458L361.871,267.958z"/>
		</g>
		<g>
			<path fill="#99241B" d="M218.365,45.901c17.802,12.404,22.196,36.96,9.794,54.833c-12.404,17.878-36.901,22.317-54.703,9.924
				c-17.807-12.411-22.189-36.967-9.794-54.842C176.055,37.943,200.559,33.489,218.365,45.901z"/>
		</g>
		<g>
			<path fill="#E03127" d="M390.228,97.151c17.805,12.402,22.184,36.967,9.794,54.842c-12.407,17.864-36.901,22.308-54.703,9.908
				c-17.809-12.402-22.194-36.95-9.783-54.831C347.927,89.195,372.412,84.754,390.228,97.151z"/>
		</g>
		<g>
			<path fill="#F7941E" d="M339.536,270.027c17.8,12.397,22.192,36.954,9.788,54.824c-12.407,17.892-36.892,22.333-54.696,9.922
				c-17.807-12.404-22.185-36.96-9.792-54.831C297.248,262.057,321.725,257.618,339.536,270.027z"/>
		</g>
		<g>
			<path fill="#731305" d="M166.625,220.402c17.807,12.407,22.189,36.955,9.794,54.831c-12.412,17.884-36.901,22.32-54.708,9.922
				c-17.809-12.405-22.189-36.96-9.773-54.831C124.327,212.437,148.813,208.007,166.625,220.402z"/>
		</g>
	</g>
	<g>
		<g>
			<path fill="#99241B" d="M105.069,383.711c-0.442,0.753-1.311,0.821-1.969,0.246c0,0-1.56-1.902-6.152-3.874
				c-3.043-1.309-6.5-1.909-10.315-1.909c-5.755,0-9.941,1.074-12.544,3.223c-2.607,2.153-3.909,5.076-3.909,8.77
				c0,1.938,0.351,3.531,1.048,4.775c0.698,1.238,1.789,2.319,3.271,3.224c1.488,0.906,3.36,1.698,5.634,2.363
				c2.274,0.67,4.955,1.337,8.045,2c3.453,0.724,6.545,1.531,9.264,2.409c2.726,0.88,5.062,1.999,7,3.357
				c1.938,1.368,3.426,3.031,4.453,5c1.037,1.974,1.548,4.413,1.548,7.316c0,2.973-0.575,5.547-1.725,7.729
				c-1.15,2.18-2.757,4.002-4.82,5.452c-2.056,1.458-4.51,2.527-7.359,3.229c-2.849,0.692-5.942,1.046-9.273,1.046
				c-9.794,0-17.518-2.793-24.75-8.382c-1.159-0.899-0.412-2.215-0.412-2.215l1.541-2.584c0.442-0.75,1.264-0.824,1.938-0.268
				c0,0,3.114,3.111,8.419,5.22c4.032,1.604,8.419,2.644,13.356,2.587c6.024-0.062,9.181-0.921,12.084-2.767
				c2.916-1.848,4.366-4.652,4.366-8.41c0-1.999-0.407-3.677-1.221-5.042c-0.819-1.361-2.049-2.544-3.682-3.545
				c-1.642-0.999-3.687-1.865-6.138-2.594c-2.452-0.724-5.282-1.45-8.498-2.175c-3.391-0.79-6.363-1.606-8.909-2.456
				c-2.544-0.845-4.678-1.907-6.401-3.181c-1.728-1.272-3.036-2.799-3.912-4.588s-1.313-3.99-1.313-6.588
				c0-2.973,0.554-5.618,1.678-7.956c1.117-2.331,2.693-4.267,4.726-5.816c2.028-1.545,4.451-2.722,7.272-3.545
				c2.823-0.816,5.92-1.228,9.312-1.228c4.243,0,8.048,0.652,11.413,1.954c2.807,1.091,5.308,2.669,7.764,4.38
				c1.699,1.179,0.483,2.561,0.483,2.561L105.069,383.711z"/>
		</g>
		<g>
			<path fill="#99241B" d="M123.08,437.517c-0.878,0-1.318-0.657-0.978-1.46l25.768-61.603c0.336-0.803,1.332-1.463,2.201-1.463
				h2.006c0.88,0,1.86,0.66,2.201,1.463l25.765,61.603c0.34,0.803-0.1,1.46-0.975,1.46h-3.646c-0.869,0-1.858-0.66-2.184-1.465
				l-7.151-17.243c-0.333-0.807-1.323-1.47-2.198-1.47h-25.812c-0.875,0-1.855,0.663-2.191,1.47l-7.063,17.243
				c-0.336,0.805-1.32,1.465-2.193,1.465H123.08z M151.712,381.917c-0.319-0.812-0.866-0.813-1.205-0.009l-12.049,28.971
				c-0.336,0.805,0.104,1.465,0.973,1.465h23.008c0.866,0,1.318-0.665,0.989-1.47L151.712,381.917z"/>
		</g>
		<g>
			<path fill="#99241B" d="M186.836,404.8c0-3.874,0.679-7.74,2.04-11.59c1.368-3.846,3.348-7.279,5.954-10.311
				c2.612-3.034,5.814-5.497,9.638-7.411c3.812-1.907,8.145-2.863,12.998-2.863c5.746,0,10.661,1.309,14.719,3.911
				c3.675,2.359,6.349,5.146,8.351,8.789c0.854,1.55-0.85,2.335-0.85,2.335l-2.144,1.318c-0.75,0.457-1.715,0.211-2.156-0.544
				c0,0-1.474-2.539-2.929-3.995c-1.456-1.45-3.031-2.631-4.721-3.54c-1.701-0.911-3.452-1.559-5.272-1.959
				c-1.825-0.388-3.609-0.585-5.365-0.585c-3.881,0-7.3,0.786-10.268,2.359c-2.972,1.579-5.476,3.638-7.503,6.182
				c-2.028,2.546-3.557,5.409-4.586,8.59c-1.032,3.18-1.548,6.405-1.548,9.681c0,3.57,0.62,6.997,1.867,10.27
				c1.237,3.268,2.941,6.164,5.085,8.678c2.154,2.513,4.7,4.513,7.634,5.996c2.939,1.486,6.136,2.231,9.593,2.231
				c1.811,0,3.678-0.229,5.585-0.687c1.91-0.456,3.757-1.181,5.551-2.182c1.784-1.001,3.434-2.238,4.946-3.727
				c1.254-1.224,2.059-2.01,2.927-3.696c0.842-1.661,2.356-0.921,2.356-0.921l2.397,1.209c0.778,0.397,1.069,1.354,0.65,2.118
				c0,0-1.727,3.174-3.604,5.017c-1.879,1.855-3.971,3.41-6.271,4.681c-2.302,1.271-4.737,2.243-7.319,2.911
				c-2.574,0.669-5.102,1.001-7.582,1.001c-4.427,0-8.486-0.973-12.182-2.908c-3.698-1.938-6.879-4.473-9.543-7.592
				c-2.669-3.121-4.74-6.663-6.226-10.63C187.572,412.964,186.836,408.922,186.836,404.8z"/>
		</g>
		<g>
			<path fill="#99241B" d="M302.527,431.885c0.88,0,1.59,0.715,1.59,1.588v2.459c0,0.871-0.709,1.585-1.59,1.585h-40.174
				c-0.866,0-1.587-0.714-1.587-1.585v-61.354c0-0.876,0.722-1.586,1.587-1.586h39.357c0.878,0,1.59,0.71,1.59,1.586v2.463
				c0,0.871-0.712,1.588-1.59,1.588h-33.082c-0.878,0-1.59,0.713-1.59,1.586v20.093c0,0.873,0.712,1.585,1.59,1.585h28.451
				c0.873,0,1.581,0.715,1.581,1.59v2.185c0,0.875-0.708,1.588-1.581,1.588h-28.451c-0.878,0-1.59,0.715-1.59,1.588v21.455
				c0,0.871,0.712,1.588,1.59,1.588H302.527z"/>
		</g>
		<g>
			<path fill="#99241B" d="M378.749,437.517c-0.866,0-1.585-0.714-1.585-1.585v-49.81c0-0.875-0.355-0.973-0.788-0.21
				l-21.962,38.228c-0.436,0.763-1.5,1.38-2.376,1.38h-0.549c-0.878,0-1.952-0.617-2.385-1.375l-22.042-38.235
				c-0.436-0.76-0.786-0.662-0.786,0.213v49.81c0,0.871-0.717,1.585-1.597,1.585h-3.088c-0.875,0-1.588-0.714-1.588-1.585v-61.354
				c0-0.876,0.712-1.586,1.588-1.586h3.273c0.878,0,1.938,0.618,2.374,1.378l23.694,41.415c0.431,0.758,1.143,0.758,1.571,0
				l23.692-41.415c0.433-0.76,1.507-1.378,2.378-1.378h3.272c0.875,0,1.593,0.71,1.593,1.586v61.354
				c0,0.871-0.717,1.585-1.593,1.585H378.749z"/>
		</g>
		<g>
			<path fill="#99241B" d="M392.995,437.517c-0.874,0-1.309-0.657-0.975-1.46l25.771-61.603c0.336-0.803,1.328-1.463,2.196-1.463
				h2.009c0.873,0,1.86,0.66,2.196,1.463l25.77,61.603c0.336,0.803-0.1,1.46-0.975,1.46h-3.64c-0.876,0-1.857-0.66-2.196-1.465
				l-7.144-17.243c-0.334-0.807-1.318-1.47-2.199-1.47h-25.812c-0.88,0-1.864,0.663-2.193,1.47l-7.066,17.243
				c-0.334,0.805-1.318,1.465-2.184,1.465H392.995z M421.635,381.917c-0.329-0.812-0.869-0.813-1.207-0.009l-12.05,28.971
				c-0.339,0.805,0.106,1.465,0.978,1.465h23.004c0.873,0,1.317-0.665,0.988-1.47L421.635,381.917z"/>
		</g>
	</g>
</g>
</svg>
